%YAML 1.1
%TAG !u! tag:unity3d.com,2011:
--- !u!162 &1
EditorUserSettings:
  m_ObjectHideFlags: 0
  serializedVersion: 4
  m_ConfigSettings:
    RecentlyUsedSceneGuid-0:
      value: 050105070405080908080a2049725944444e482b7e7f22332f7d4a67e1b06268
      flags: 0
    RecentlyUsedSceneGuid-1:
      value: 540103070656515f0b080e7542210e4442151a7b2a2e24357c2a4465b7e6673c
      flags: 0
    RecentlyUsedSceneGuid-2:
      value: 565004000003590e5f0a5a7648200d4445154b29782c24617b7f4e6ab3e13060
      flags: 0
    RecentlyUsedSceneGuid-3:
      value: 5704050407530f020e5f5b7012760944451619292a2e73357b701c31b2b0376a
      flags: 0
    RecentlyUsedSceneGuid-4:
      value: 5309015f56025b595f0d5b20447407444f16197b7f297631742c4e63e4e16c3d
      flags: 0
    RecentlyUsedSceneGuid-5:
      value: 07085755550c5a020f0d5e2744270e4445151d7c297e72347d7e4a31b2b4653c
      flags: 0
    RecentlyUsedSceneGuid-6:
      value: 5b07030000030b0f545d0d21407b5c444316402f282a74637c281b6be7b9673e
      flags: 0
    RecentlyUsedSceneGuid-7:
      value: 5b020c5f50055f580e0a547b48200e4414164f787f797135287a4566e0b66d6a
      flags: 0
    RecentlyUsedSceneGuid-8:
      value: 0608045752515c5d54580e7b167306444e4e1a7e2e7b71357c2d4b36e0b9656c
      flags: 0
    RecentlyUsedSceneGuid-9:
      value: 5a05010707540b0c5d5c5a2440745b4440154028792e206978794563e4e36d60
      flags: 0
    vcSharedLogLevel:
      value: 0d5e400f0650
      flags: 0
  m_VCAutomaticAdd: 1
  m_VCDebugCom: 0
  m_VCDebugCmd: 0
  m_VCDebugOut: 0
  m_SemanticMergeMode: 2
  m_DesiredImportWorkerCount: 2
  m_StandbyImportWorkerCount: 2
  m_IdleImportWorkerShutdownDelay: 60000
  m_VCShowFailedCheckout: 1
  m_VCOverwriteFailedCheckoutAssets: 1
  m_VCProjectOverlayIcons: 1
  m_VCHierarchyOverlayIcons: 1
  m_VCOtherOverlayIcons: 1
  m_VCAllowAsyncUpdate: 1
  m_ArtifactGarbageCollection: 1
